…
-   Nice athlete name
-   Speed in kilometers per hour

<!-- -->

    time_pro <- function(df_time, df_athlete_dir) {
      df_time |>
        mutate(
          athlete = str_remove(athlete, "^df_time_"),
          speed = 0.25 / (time / 60 / 60)) |>
        left_join(select(df_athlete_dir, athlete, distance), by = "athlete")
    }

    ## # A tibble: 444 × 6
    ##    athlete      time lap_nr   ind speed distance
    ##    <chr>       <dbl>  <dbl> <int> <dbl>    <dbl>
    ##  1 campenaerts  24.5      1     1  36.7     55.1
    ##  2 campenaerts  16.7      2     2  53.8     55.1
    ##  3 campenaerts  16.1      3     3  56.0     55.1
    ##  4 campenaerts  16.0      4     4  56.2     55.1
    ##  5 campenaerts  16.2      5     5  55.5     55.1
    ##  6 campenaerts  16.3      6     6  55.2     55.1
    ##  7 campenaerts  16.3      7     7  55.1     55.1
    ##  8 campenaerts  16.3      8     8  55.1     55.1
    ##  9 campenaerts  16.3      9     9  55.2     55.1
    ## 10 campenaerts  16.3     10    10  55.3     55.1
    ## # … with 434 more rows
…
